<?xml version="1.0" standalone="no"?>
<!DOCTYPE svg PUBLIC "-//W3C//DTD SVG 20010904//EN"
 "http://www.w3.org/TR/2001/REC-SVG-20010904/DTD/svg10.dtd">
<svg version="1.0" xmlns="http://www.w3.org/2000/svg"
 width="120.000000pt" height="120.000000pt" viewBox="0 0 120.000000 120.000000"
 preserveAspectRatio="xMidYMid meet">
<metadata>
Created by potrace 1.14, written by Peter Selinger 2001-2017
</metadata>
<g transform="translate(0.000000,120.000000) scale(0.100000,-0.100000)"
fill="#000000" stroke="none">
<path d="M609 1159 c-11 -7 -10 -9 5 -9 10 0 40 -12 67 -27 38 -20 54 -38 74
-76 14 -28 25 -62 25 -75 0 -13 4 -20 10 -17 16 10 5 99 -16 135 -29 50 -129
92 -165 69z"/>
<path d="M435 1090 c-58 -23 -63 -84 -13 -139 31 -34 31 -34 -11 4 -23 22 -58
55 -76 73 -65 64 -142 30 -136 -60 0 -9 27 -44 59 -77 64 -66 70 -79 15 -30
-43 38 -87 37 -116 -2 -29 -40 -16 -75 61 -154 37 -39 58 -62 46 -53 -11 10
-34 21 -51 24 -26 5 -37 1 -57 -19 -45 -45 -37 -61 107 -202 340 -333 364
-350 502 -349 62 1 91 6 127 23 46 22 148 108 148 125 0 4 8 20 18 34 59 85
55 208 -13 373 -74 177 -83 216 -67 285 18 78 -27 116 -96 80 -50 -26 -62 -72
-49 -188 3 -32 3 -59 -2 -62 -4 -3 -81 67 -171 155 -90 87 -167 159 -171 159
-4 0 -13 2 -21 4 -7 3 -22 1 -33 -4z m50 -200 c10 -11 16 -20 13 -20 -3 0 -13
9 -23 20 -10 11 -16 20 -13 20 3 0 13 -9 23 -20z"/>
<path d="M610 1071 c0 -6 7 -11 15 -11 8 0 38 -24 67 -52 l51 -53 -6 35 c-4
19 -18 45 -30 58 -25 25 -97 42 -97 23z"/>
<path d="M150 458 c0 -52 75 -106 124 -88 16 5 12 10 -25 29 -24 12 -56 36
-71 54 l-28 31 0 -26z"/>
<path d="M64 448 c8 -48 38 -99 72 -122 40 -27 117 -33 154 -11 24 14 24 14
-23 15 -82 0 -129 27 -181 105 -24 36 -26 37 -22 13z"/>
</g>
</svg>
